{
  "name": "asus-nb-gex",
  "description": "This extension allows you to visualize most of the asusd settings and status",
  "uuid": "asus-nb-gex@asus-linux.org",
  "version": 4,
  "shell-version": [
    "3.36",
    "3.38"
  ]
}
